127.0.0.1 - - [22/Mar/2018:09:59:35 +0700] "GET / HTTP/1.1" 404 951
0:0:0:0:0:0:0:1 - - [22/Mar/2018:10:00:10 +0700] "GET /noodle/customer.htm?mode=customer HTTP/1.1" 404 989
0:0:0:0:0:0:0:1 - - [22/Mar/2018:10:00:13 +0700] "GET /favicon.ico HTTP/1.1" 404 973
0:0:0:0:0:0:0:1 - - [22/Mar/2018:10:09:41 +0700] "GET /noodle/customer.htm?mode=customer HTTP/1.1" 404 989
127.0.0.1 - - [22/Mar/2018:10:15:42 +0700] "GET / HTTP/1.1" 404 951
0:0:0:0:0:0:0:1 - - [22/Mar/2018:10:15:44 +0700] "GET /noodle/customer.htm?mode=customer HTTP/1.1" 200 25478
0:0:0:0:0:0:0:1 - - [22/Mar/2018:10:18:37 +0700] "GET /noodle/customer.htm?mode=chooseMenu HTTP/1.1" 500 68
0:0:0:0:0:0:0:1 - - [22/Mar/2018:10:18:38 +0700] "GET /noodle/login.htm?mode=index&er= HTTP/1.1" 200 6215
0:0:0:0:0:0:0:1 - - [22/Mar/2018:10:18:44 +0700] "GET /noodle/customer.htm?mode=customer HTTP/1.1" 200 25390
0:0:0:0:0:0:0:1 - - [22/Mar/2018:10:18:46 +0700] "GET /noodle/customer.htm?mode=chooseMenu HTTP/1.1" 200 63749
0:0:0:0:0:0:0:1 - - [22/Mar/2018:10:18:47 +0700] "GET /noodle/menu-icon.png HTTP/1.1" 304 -
0:0:0:0:0:0:0:1 - - [22/Mar/2018:10:18:49 +0700] "GET /noodle/fanta-green.jpg HTTP/1.1" 404 68
0:0:0:0:0:0:0:1 - - [22/Mar/2018:10:18:51 +0700] "GET /coconut.jpg HTTP/1.1" 404 973
0:0:0:0:0:0:0:1 - - [22/Mar/2018:10:18:52 +0700] "GET /noodle/pic2 HTTP/1.1" 404 68
0:0:0:0:0:0:0:1 - - [22/Mar/2018:10:18:54 +0700] "POST /noodle/customer.htm?mode=typeDetail HTTP/1.1" 200 104
0:0:0:0:0:0:0:1 - - [22/Mar/2018:10:51:34 +0700] "GET /noodle/customer.htm?mode=chooseMenu HTTP/1.1" 500 68
0:0:0:0:0:0:0:1 - - [22/Mar/2018:10:51:37 +0700] "GET /noodle/login.htm?mode=index&er= HTTP/1.1" 200 6215
0:0:0:0:0:0:0:1 - - [22/Mar/2018:10:51:42 +0700] "GET /noodle/customer.htm?mode=customer HTTP/1.1" 200 25390
0:0:0:0:0:0:0:1 - - [22/Mar/2018:10:51:44 +0700] "GET /noodle/customer.htm?mode=chooseMenu HTTP/1.1" 200 63730
0:0:0:0:0:0:0:1 - - [22/Mar/2018:10:51:45 +0700] "GET /noodle/fanta-green.jpg HTTP/1.1" 404 68
0:0:0:0:0:0:0:1 - - [22/Mar/2018:10:51:45 +0700] "GET /coconut.jpg HTTP/1.1" 404 973
0:0:0:0:0:0:0:1 - - [22/Mar/2018:10:51:47 +0700] "GET /noodle/pic2 HTTP/1.1" 404 68
0:0:0:0:0:0:0:1 - - [22/Mar/2018:10:51:47 +0700] "POST /noodle/customer.htm?mode=typeDetail HTTP/1.1" 200 104
0:0:0:0:0:0:0:1 - - [22/Mar/2018:10:54:06 +0700] "GET /noodle/customer.htm?mode=chooseMenu HTTP/1.1" 200 63736
0:0:0:0:0:0:0:1 - - [22/Mar/2018:10:54:06 +0700] "GET /noodle/fanta-green.jpg HTTP/1.1" 404 68
0:0:0:0:0:0:0:1 - - [22/Mar/2018:10:54:06 +0700] "GET /coconut.jpg HTTP/1.1" 404 973
0:0:0:0:0:0:0:1 - - [22/Mar/2018:10:54:06 +0700] "GET /noodle/pic2 HTTP/1.1" 404 68
0:0:0:0:0:0:0:1 - - [22/Mar/2018:10:54:06 +0700] "GET /noodle/fanta-green.jpg HTTP/1.1" 404 68
0:0:0:0:0:0:0:1 - - [22/Mar/2018:10:54:06 +0700] "GET /coconut.jpg HTTP/1.1" 404 973
0:0:0:0:0:0:0:1 - - [22/Mar/2018:10:54:08 +0700] "POST /noodle/customer.htm?mode=typeDetail HTTP/1.1" 200 104
0:0:0:0:0:0:0:1 - - [22/Mar/2018:10:57:20 +0700] "GET /noodle/customer.htm?mode=chooseMenu HTTP/1.1" 200 63737
0:0:0:0:0:0:0:1 - - [22/Mar/2018:10:57:20 +0700] "GET /noodle/fanta-green.jpg HTTP/1.1" 404 68
0:0:0:0:0:0:0:1 - - [22/Mar/2018:10:57:20 +0700] "GET /coconut.jpg HTTP/1.1" 404 973
0:0:0:0:0:0:0:1 - - [22/Mar/2018:10:57:20 +0700] "GET /noodle/pic2 HTTP/1.1" 404 68
0:0:0:0:0:0:0:1 - - [22/Mar/2018:10:57:20 +0700] "GET /noodle/fanta-green.jpg HTTP/1.1" 404 68
0:0:0:0:0:0:0:1 - - [22/Mar/2018:10:57:20 +0700] "GET /coconut.jpg HTTP/1.1" 404 973
0:0:0:0:0:0:0:1 - - [22/Mar/2018:10:57:22 +0700] "POST /noodle/customer.htm?mode=typeDetail HTTP/1.1" 200 104
0:0:0:0:0:0:0:1 - - [22/Mar/2018:10:57:27 +0700] "POST /noodle/customer.htm?mode=typeDetail HTTP/1.1" 200 106
0:0:0:0:0:0:0:1 - - [22/Mar/2018:10:58:08 +0700] "GET /noodle/customer.htm?mode=chooseMenu HTTP/1.1" 200 63737
0:0:0:0:0:0:0:1 - - [22/Mar/2018:10:58:08 +0700] "GET /noodle/fanta-green.jpg HTTP/1.1" 404 68
0:0:0:0:0:0:0:1 - - [22/Mar/2018:10:58:08 +0700] "GET /coconut.jpg HTTP/1.1" 404 973
0:0:0:0:0:0:0:1 - - [22/Mar/2018:10:58:08 +0700] "GET /noodle/pic2 HTTP/1.1" 404 68
0:0:0:0:0:0:0:1 - - [22/Mar/2018:10:58:08 +0700] "GET /noodle/fanta-green.jpg HTTP/1.1" 404 68
0:0:0:0:0:0:0:1 - - [22/Mar/2018:10:58:08 +0700] "GET /coconut.jpg HTTP/1.1" 404 973
0:0:0:0:0:0:0:1 - - [22/Mar/2018:10:58:10 +0700] "POST /noodle/customer.htm?mode=typeDetail HTTP/1.1" 200 104
0:0:0:0:0:0:0:1 - - [22/Mar/2018:11:00:29 +0700] "GET /noodle/customer.htm?mode=chooseMenu HTTP/1.1" 200 63747
0:0:0:0:0:0:0:1 - - [22/Mar/2018:11:00:29 +0700] "GET /noodle/fanta-green.jpg HTTP/1.1" 404 68
0:0:0:0:0:0:0:1 - - [22/Mar/2018:11:00:29 +0700] "GET /coconut.jpg HTTP/1.1" 404 973
0:0:0:0:0:0:0:1 - - [22/Mar/2018:11:00:29 +0700] "GET /noodle/pic2 HTTP/1.1" 404 68
0:0:0:0:0:0:0:1 - - [22/Mar/2018:11:00:29 +0700] "GET /noodle/fanta-green.jpg HTTP/1.1" 404 68
0:0:0:0:0:0:0:1 - - [22/Mar/2018:11:00:29 +0700] "GET /coconut.jpg HTTP/1.1" 404 973
0:0:0:0:0:0:0:1 - - [22/Mar/2018:11:00:31 +0700] "POST /noodle/customer.htm?mode=typeDetail HTTP/1.1" 200 104
0:0:0:0:0:0:0:1 - - [22/Mar/2018:11:02:09 +0700] "GET /noodle/customer.htm?mode=customer HTTP/1.1" 200 25392
0:0:0:0:0:0:0:1 - - [22/Mar/2018:11:28:30 +0700] "POST /noodle/customer.htm HTTP/1.1" 200 -
0:0:0:0:0:0:0:1 - - [22/Mar/2018:11:28:33 +0700] "GET /noodle/customer.htm?mode=customer HTTP/1.1" 500 68
0:0:0:0:0:0:0:1 - - [22/Mar/2018:11:28:33 +0700] "GET /noodle/customer.htm?mode=customer HTTP/1.1" 500 68
0:0:0:0:0:0:0:1 - - [22/Mar/2018:11:29:23 +0700] "GET /noodle/customer.htm?mode=customer HTTP/1.1" 500 68
0:0:0:0:0:0:0:1 - - [22/Mar/2018:11:29:24 +0700] "GET /noodle/login.htm?mode=index&er= HTTP/1.1" 200 6215
0:0:0:0:0:0:0:1 - - [22/Mar/2018:11:32:17 +0700] "GET /noodle/customer.htm?mode=customer HTTP/1.1" 500 68
0:0:0:0:0:0:0:1 - - [22/Mar/2018:11:32:17 +0700] "GET /noodle/login.htm?mode=index&er= HTTP/1.1" 200 6215
0:0:0:0:0:0:0:1 - - [22/Mar/2018:11:32:19 +0700] "GET /noodle/customer.htm?mode=customer HTTP/1.1" 500 68
0:0:0:0:0:0:0:1 - - [22/Mar/2018:11:32:19 +0700] "GET /noodle/login.htm?mode=index&er= HTTP/1.1" 200 6215
0:0:0:0:0:0:0:1 - - [22/Mar/2018:11:32:20 +0700] "GET /noodle/customer.htm?mode=customer HTTP/1.1" 500 68
0:0:0:0:0:0:0:1 - - [22/Mar/2018:11:32:20 +0700] "GET /noodle/login.htm?mode=index&er= HTTP/1.1" 200 6215
0:0:0:0:0:0:0:1 - - [22/Mar/2018:11:32:21 +0700] "GET /noodle/customer.htm?mode=customer HTTP/1.1" 500 68
0:0:0:0:0:0:0:1 - - [22/Mar/2018:11:32:21 +0700] "GET /noodle/login.htm?mode=index&er= HTTP/1.1" 200 6215
0:0:0:0:0:0:0:1 - - [22/Mar/2018:11:32:21 +0700] "GET /noodle/customer.htm?mode=customer HTTP/1.1" 500 68
0:0:0:0:0:0:0:1 - - [22/Mar/2018:11:32:21 +0700] "GET /noodle/login.htm?mode=index&er= HTTP/1.1" 200 6215
0:0:0:0:0:0:0:1 - - [22/Mar/2018:11:32:21 +0700] "GET /noodle/customer.htm?mode=customer HTTP/1.1" 500 68
0:0:0:0:0:0:0:1 - - [22/Mar/2018:11:32:21 +0700] "GET /noodle/login.htm?mode=index&er= HTTP/1.1" 200 6215
0:0:0:0:0:0:0:1 - - [22/Mar/2018:11:32:21 +0700] "GET /noodle/customer.htm?mode=customer HTTP/1.1" 500 68
0:0:0:0:0:0:0:1 - - [22/Mar/2018:11:32:22 +0700] "GET /noodle/login.htm?mode=index&er= HTTP/1.1" 200 6215
0:0:0:0:0:0:0:1 - - [22/Mar/2018:11:32:22 +0700] "GET /noodle/customer.htm?mode=customer HTTP/1.1" 500 68
0:0:0:0:0:0:0:1 - - [22/Mar/2018:11:32:22 +0700] "GET /noodle/login.htm?mode=index&er= HTTP/1.1" 200 6215
0:0:0:0:0:0:0:1 - - [22/Mar/2018:11:32:22 +0700] "GET /noodle/customer.htm?mode=customer HTTP/1.1" 500 68
0:0:0:0:0:0:0:1 - - [22/Mar/2018:11:32:22 +0700] "GET /noodle/login.htm?mode=index&er= HTTP/1.1" 200 6215
0:0:0:0:0:0:0:1 - - [22/Mar/2018:11:32:22 +0700] "GET /noodle/customer.htm?mode=customer HTTP/1.1" 500 68
0:0:0:0:0:0:0:1 - - [22/Mar/2018:11:32:22 +0700] "GET /noodle/login.htm?mode=index&er= HTTP/1.1" 200 6215
0:0:0:0:0:0:0:1 - - [22/Mar/2018:11:32:22 +0700] "GET /noodle/customer.htm?mode=customer HTTP/1.1" 500 68
0:0:0:0:0:0:0:1 - - [22/Mar/2018:11:32:22 +0700] "GET /noodle/login.htm?mode=index&er= HTTP/1.1" 200 6215
0:0:0:0:0:0:0:1 - - [22/Mar/2018:11:32:22 +0700] "GET /noodle/customer.htm?mode=customer HTTP/1.1" 500 68
0:0:0:0:0:0:0:1 - - [22/Mar/2018:11:32:23 +0700] "GET /noodle/login.htm?mode=index&er= HTTP/1.1" 200 6215
0:0:0:0:0:0:0:1 - - [22/Mar/2018:11:32:23 +0700] "GET /noodle/customer.htm?mode=customer HTTP/1.1" 500 68
0:0:0:0:0:0:0:1 - - [22/Mar/2018:11:32:23 +0700] "GET /noodle/login.htm?mode=index&er= HTTP/1.1" 200 6215
0:0:0:0:0:0:0:1 - - [22/Mar/2018:11:32:23 +0700] "GET /noodle/customer.htm?mode=customer HTTP/1.1" 500 68
0:0:0:0:0:0:0:1 - - [22/Mar/2018:11:32:23 +0700] "GET /noodle/login.htm?mode=index&er= HTTP/1.1" 200 6215
0:0:0:0:0:0:0:1 - - [22/Mar/2018:11:32:23 +0700] "GET /noodle/customer.htm?mode=customer HTTP/1.1" 500 68
0:0:0:0:0:0:0:1 - - [22/Mar/2018:11:32:23 +0700] "GET /noodle/login.htm?mode=index&er= HTTP/1.1" 200 6215
127.0.0.1 - - [22/Mar/2018:11:33:55 +0700] "GET / HTTP/1.1" 404 951
0:0:0:0:0:0:0:1 - - [22/Mar/2018:11:33:55 +0700] "GET /noodle/customer.htm?mode=customer HTTP/1.1" 200 25357
0:0:0:0:0:0:0:1 - - [22/Mar/2018:13:26:22 +0700] "GET /noodle/customer.htm?mode=chooseMenu HTTP/1.1" 500 68
0:0:0:0:0:0:0:1 - - [22/Mar/2018:13:26:23 +0700] "GET /noodle/login.htm?mode=index&er= HTTP/1.1" 200 6215
0:0:0:0:0:0:0:1 - - [22/Mar/2018:13:26:28 +0700] "GET /noodle/customer.htm?mode=chooseMenu HTTP/1.1" 200 63746
0:0:0:0:0:0:0:1 - - [22/Mar/2018:13:26:28 +0700] "GET /coconut.jpg HTTP/1.1" 404 973
0:0:0:0:0:0:0:1 - - [22/Mar/2018:13:26:28 +0700] "GET /noodle/fanta-green.jpg HTTP/1.1" 404 68
0:0:0:0:0:0:0:1 - - [22/Mar/2018:13:26:29 +0700] "GET /noodle/pic2 HTTP/1.1" 404 68
0:0:0:0:0:0:0:1 - - [22/Mar/2018:13:31:25 +0700] "GET /noodle/customer.htm?mode=customer HTTP/1.1" 200 25357
0:0:0:0:0:0:0:1 - - [22/Mar/2018:13:31:38 +0700] "POST /noodle/customer.htm HTTP/1.1" 200 -
0:0:0:0:0:0:0:1 - - [22/Mar/2018:13:32:19 +0700] "GET /noodle/customer.htm?mode=cart HTTP/1.1" 200 14221
0:0:0:0:0:0:0:1 - - [22/Mar/2018:13:35:36 +0700] "GET /noodle/ HTTP/1.1" 200 68
0:0:0:0:0:0:0:1 - - [22/Mar/2018:13:35:40 +0700] "GET /noodle/login.htm?mode=index&er= HTTP/1.1" 200 6215
0:0:0:0:0:0:0:1 - - [22/Mar/2018:13:35:59 +0700] "POST /noodle/login.htm HTTP/1.1" 200 367
0:0:0:0:0:0:0:1 - - [22/Mar/2018:13:36:03 +0700] "GET /noodle/login.htm?mode=home HTTP/1.1" 200 13859
0:0:0:0:0:0:0:1 - - [22/Mar/2018:13:36:05 +0700] "GET /noodle/login.htm?mode=home HTTP/1.1" 200 13859
0:0:0:0:0:0:0:1 - - [22/Mar/2018:13:36:07 +0700] "GET /noodle/stock.htm?mode=index HTTP/1.1" 200 32679
0:0:0:0:0:0:0:1 - - [22/Mar/2018:13:36:13 +0700] "POST /noodle/stock.htm HTTP/1.1" 200 12209
0:0:0:0:0:0:0:1 - - [22/Mar/2018:13:36:34 +0700] "GET /noodle/transport.htm?mode=index HTTP/1.1" 200 12867
0:0:0:0:0:0:0:1 - - [22/Mar/2018:13:36:37 +0700] "GET /noodle/order.htm?mode=index HTTP/1.1" 200 22780
0:0:0:0:0:0:0:1 - - [22/Mar/2018:13:42:16 +0700] "GET /noodle/master.htm?mode=product HTTP/1.1" 200 11459
0:0:0:0:0:0:0:1 - - [22/Mar/2018:13:42:19 +0700] "GET /noodle/master.htm?mode=customerAll HTTP/1.1" 200 13407
0:0:0:0:0:0:0:1 - - [22/Mar/2018:13:42:39 +0700] "GET /noodle/customer.htm?mode=orderList HTTP/1.1" 200 13058
0:0:0:0:0:0:0:1 - - [22/Mar/2018:13:44:02 +0700] "GET /noodle/customer.htm?mode=orderList HTTP/1.1" 200 13058
0:0:0:0:0:0:0:1 - - [22/Mar/2018:13:45:38 +0700] "GET /noodle/customer.htm?mode=orderList HTTP/1.1" 200 12673
0:0:0:0:0:0:0:1 - - [22/Mar/2018:13:52:11 +0700] "GET /noodle/customer.htm?mode=orderList HTTP/1.1" 500 68
0:0:0:0:0:0:0:1 - - [22/Mar/2018:13:52:12 +0700] "GET /noodle/login.htm?mode=index&er= HTTP/1.1" 200 6215
0:0:0:0:0:0:0:1 - - [22/Mar/2018:13:52:21 +0700] "POST /noodle/login.htm HTTP/1.1" 200 367
0:0:0:0:0:0:0:1 - - [22/Mar/2018:13:52:23 +0700] "GET /noodle/login.htm?mode=home HTTP/1.1" 200 13859
0:0:0:0:0:0:0:1 - - [22/Mar/2018:13:52:31 +0700] "GET /noodle/customer.htm?mode=orderList HTTP/1.1" 500 68
0:0:0:0:0:0:0:1 - - [22/Mar/2018:13:52:31 +0700] "GET /noodle/login.htm?mode=index&er= HTTP/1.1" 200 6215
0:0:0:0:0:0:0:1 - - [22/Mar/2018:13:53:05 +0700] "GET /noodle/customer.htm?mode=orderList HTTP/1.1" 500 68
0:0:0:0:0:0:0:1 - - [22/Mar/2018:13:53:06 +0700] "GET /noodle/login.htm?mode=index&er= HTTP/1.1" 200 6215
0:0:0:0:0:0:0:1 - - [22/Mar/2018:13:53:45 +0700] "GET /noodle/customer.htm?mode=orderList HTTP/1.1" 500 68
0:0:0:0:0:0:0:1 - - [22/Mar/2018:13:53:45 +0700] "GET /noodle/login.htm?mode=index&er= HTTP/1.1" 200 6215
0:0:0:0:0:0:0:1 - - [22/Mar/2018:13:54:09 +0700] "GET /noodle/login.htm?mode=home HTTP/1.1" 200 13859
0:0:0:0:0:0:0:1 - - [22/Mar/2018:13:54:17 +0700] "GET /noodle/customer.htm?mode=orderList HTTP/1.1" 500 68
0:0:0:0:0:0:0:1 - - [22/Mar/2018:13:54:18 +0700] "GET /noodle/login.htm?mode=index&er= HTTP/1.1" 200 6215
0:0:0:0:0:0:0:1 - - [22/Mar/2018:13:54:23 +0700] "GET /noodle/master.htm?mode=customerAll HTTP/1.1" 200 13407
0:0:0:0:0:0:0:1 - - [22/Mar/2018:13:55:02 +0700] "GET /noodle/master.htm?mode=customerAll HTTP/1.1" 200 13407
0:0:0:0:0:0:0:1 - - [22/Mar/2018:13:55:04 +0700] "GET /noodle/customer.htm?mode=orderList HTTP/1.1" 500 68
0:0:0:0:0:0:0:1 - - [22/Mar/2018:13:55:04 +0700] "GET /noodle/login.htm?mode=index&er= HTTP/1.1" 200 6215
0:0:0:0:0:0:0:1 - - [22/Mar/2018:13:55:12 +0700] "POST /noodle/login.htm HTTP/1.1" 200 367
0:0:0:0:0:0:0:1 - - [22/Mar/2018:13:55:14 +0700] "GET /noodle/login.htm?mode=home HTTP/1.1" 200 13859
0:0:0:0:0:0:0:1 - - [22/Mar/2018:13:55:17 +0700] "GET /noodle/customer.htm?mode=orderList HTTP/1.1" 500 68
0:0:0:0:0:0:0:1 - - [22/Mar/2018:13:55:17 +0700] "GET /noodle/login.htm?mode=index&er= HTTP/1.1" 200 6215
0:0:0:0:0:0:0:1 - - [22/Mar/2018:13:55:37 +0700] "GET /noodle/customer.htm?mode=orderList HTTP/1.1" 200 12679
0:0:0:0:0:0:0:1 - - [22/Mar/2018:14:00:21 +0700] "GET /noodle/customer.htm?mode=chooseMenu HTTP/1.1" 200 63783
0:0:0:0:0:0:0:1 - - [22/Mar/2018:14:00:25 +0700] "GET /noodle/fanta-green.jpg HTTP/1.1" 404 68
0:0:0:0:0:0:0:1 - - [22/Mar/2018:14:00:25 +0700] "GET /coconut.jpg HTTP/1.1" 404 973
0:0:0:0:0:0:0:1 - - [22/Mar/2018:14:00:26 +0700] "GET /noodle/pic2 HTTP/1.1" 404 68
0:0:0:0:0:0:0:1 - - [22/Mar/2018:14:00:43 +0700] "POST /noodle/customer.htm?mode=typeDetail HTTP/1.1" 200 104
0:0:0:0:0:0:0:1 - - [22/Mar/2018:14:02:24 +0700] "GET /noodle/customer.htm?mode=orderList HTTP/1.1" 200 12866
0:0:0:0:0:0:0:1 - - [22/Mar/2018:14:08:06 +0700] "GET /noodle/customer.htm?mode=orderList HTTP/1.1" 200 12866
0:0:0:0:0:0:0:1 - - [22/Mar/2018:14:08:08 +0700] "GET /noodle/customer.htm?mode=orderList HTTP/1.1" 200 12866
0:0:0:0:0:0:0:1 - - [22/Mar/2018:14:08:34 +0700] "GET /noodle/customer.htm?mode=orderList HTTP/1.1" 200 12866
0:0:0:0:0:0:0:1 - - [22/Mar/2018:14:08:36 +0700] "GET /noodle/customer.htm?mode=orderList HTTP/1.1" 200 12866
0:0:0:0:0:0:0:1 - - [22/Mar/2018:14:09:52 +0700] "GET /noodle/customer.htm?mode=orderList HTTP/1.1" 200 12866
0:0:0:0:0:0:0:1 - - [22/Mar/2018:14:10:17 +0700] "GET /noodle/customer.htm?mode=orderList HTTP/1.1" 200 12866
0:0:0:0:0:0:0:1 - - [22/Mar/2018:14:10:18 +0700] "GET /noodle/customer.htm?mode=orderList HTTP/1.1" 200 12866
0:0:0:0:0:0:0:1 - - [22/Mar/2018:14:11:24 +0700] "GET /noodle/customer.htm?mode=orderList HTTP/1.1" 200 12890
0:0:0:0:0:0:0:1 - - [22/Mar/2018:14:11:47 +0700] "GET /noodle/customer.htm?mode=orderList HTTP/1.1" 200 12890
0:0:0:0:0:0:0:1 - - [22/Mar/2018:14:11:50 +0700] "GET /noodle/customer.htm?mode=orderList HTTP/1.1" 200 12890
0:0:0:0:0:0:0:1 - - [22/Mar/2018:14:12:05 +0700] "GET /noodle/customer.htm?mode=orderList HTTP/1.1" 200 12893
0:0:0:0:0:0:0:1 - - [22/Mar/2018:14:12:26 +0700] "GET /noodle/customer.htm?mode=orderList HTTP/1.1" 200 12896
0:0:0:0:0:0:0:1 - - [22/Mar/2018:14:20:52 +0700] "GET /noodle/customer.htm?mode=orderList HTTP/1.1" 200 13007
0:0:0:0:0:0:0:1 - - [22/Mar/2018:14:22:10 +0700] "GET /noodle/customer.htm?mode=chooseMenu HTTP/1.1" 200 63784
0:0:0:0:0:0:0:1 - - [22/Mar/2018:14:22:12 +0700] "GET /noodle/fanta-green.jpg HTTP/1.1" 404 68
0:0:0:0:0:0:0:1 - - [22/Mar/2018:14:22:13 +0700] "GET /coconut.jpg HTTP/1.1" 404 973
0:0:0:0:0:0:0:1 - - [22/Mar/2018:14:22:27 +0700] "GET /noodle/cabmoo.jpg HTTP/1.1" 304 -
0:0:0:0:0:0:0:1 - - [22/Mar/2018:14:22:31 +0700] "GET /noodle/fish.jpg HTTP/1.1" 304 -
0:0:0:0:0:0:0:1 - - [22/Mar/2018:14:22:39 +0700] "GET /noodle/tuay.jpg HTTP/1.1" 304 -
0:0:0:0:0:0:0:1 - - [22/Mar/2018:14:22:42 +0700] "GET /noodle/ball.jpg HTTP/1.1" 304 -
0:0:0:0:0:0:0:1 - - [22/Mar/2018:14:22:42 +0700] "GET /noodle/ballf.jpg HTTP/1.1" 304 -
0:0:0:0:0:0:0:1 - - [22/Mar/2018:14:22:42 +0700] "GET /noodle/pic2 HTTP/1.1" 404 68
0:0:0:0:0:0:0:1 - - [22/Mar/2018:14:22:43 +0700] "GET /noodle/tuay.jpg HTTP/1.1" 200 131323
0:0:0:0:0:0:0:1 - - [22/Mar/2018:14:22:43 +0700] "GET /noodle/fish.jpg HTTP/1.1" 200 216167
0:0:0:0:0:0:0:1 - - [22/Mar/2018:14:22:43 +0700] "GET /noodle/cabmoo.jpg HTTP/1.1" 200 127484
0:0:0:0:0:0:0:1 - - [22/Mar/2018:14:22:43 +0700] "GET /noodle/ball.jpg HTTP/1.1" 200 278531
0:0:0:0:0:0:0:1 - - [22/Mar/2018:14:22:43 +0700] "GET /noodle/ballf.jpg HTTP/1.1" 200 521104
0:0:0:0:0:0:0:1 - - [22/Mar/2018:14:22:44 +0700] "GET /coconut.jpg HTTP/1.1" 404 973
0:0:0:0:0:0:0:1 - - [22/Mar/2018:14:22:44 +0700] "GET /noodle/fanta-green.jpg HTTP/1.1" 404 68
0:0:0:0:0:0:0:1 - - [22/Mar/2018:14:22:48 +0700] "GET /noodle/customer.htm?mode=orderList HTTP/1.1" 200 13096
0:0:0:0:0:0:0:1 - - [22/Mar/2018:14:22:48 +0700] "GET /noodle/login.htm?mode=home HTTP/1.1" 200 13859
0:0:0:0:0:0:0:1 - - [22/Mar/2018:14:26:09 +0700] "GET /noodle/customer.htm?mode=orderList HTTP/1.1" 200 13095
0:0:0:0:0:0:0:1 - - [22/Mar/2018:14:27:40 +0700] "GET /noodle/login.htm?mode=home HTTP/1.1" 200 13859
0:0:0:0:0:0:0:1 - - [22/Mar/2018:14:27:40 +0700] "GET /noodle/login.htm?mode=home HTTP/1.1" 200 13859
0:0:0:0:0:0:0:1 - - [22/Mar/2018:14:27:41 +0700] "GET /noodle/customer.htm?mode=orderList HTTP/1.1" 200 13120
0:0:0:0:0:0:0:1 - - [22/Mar/2018:14:27:44 +0700] "GET /noodle/customer.htm?mode=orderList HTTP/1.1" 200 13120
0:0:0:0:0:0:0:1 - - [22/Mar/2018:14:28:51 +0700] "GET /noodle/login.htm?mode=home HTTP/1.1" 200 13859
0:0:0:0:0:0:0:1 - - [22/Mar/2018:14:28:54 +0700] "GET /noodle/customer.htm?mode=orderList HTTP/1.1" 200 13126
0:0:0:0:0:0:0:1 - - [22/Mar/2018:14:28:56 +0700] "GET /noodle/customer.htm?mode=orderList HTTP/1.1" 200 13126
0:0:0:0:0:0:0:1 - - [22/Mar/2018:14:29:20 +0700] "GET /noodle/customer.htm?mode=orderList HTTP/1.1" 200 13120
0:0:0:0:0:0:0:1 - - [22/Mar/2018:14:30:04 +0700] "GET /noodle/customer.htm?mode=orderList HTTP/1.1" 200 13119
0:0:0:0:0:0:0:1 - - [22/Mar/2018:14:33:19 +0700] "GET /noodle/customer.htm?mode=orderList HTTP/1.1" 200 13147
0:0:0:0:0:0:0:1 - - [22/Mar/2018:15:32:23 +0700] "GET /noodle/customer.htm?mode=orderList HTTP/1.1" 500 68
0:0:0:0:0:0:0:1 - - [22/Mar/2018:15:32:26 +0700] "GET /noodle/login.htm?mode=index&er= HTTP/1.1" 200 6215
0:0:0:0:0:0:0:1 - - [22/Mar/2018:15:32:47 +0700] "GET /noodle/login.htm?mode=home HTTP/1.1" 200 13852
0:0:0:0:0:0:0:1 - - [22/Mar/2018:15:32:48 +0700] "GET /noodle/customer.htm?mode=orderList HTTP/1.1" 200 13161
0:0:0:0:0:0:0:1 - - [22/Mar/2018:15:33:43 +0700] "GET /noodle/customer.htm?mode=orderList HTTP/1.1" 200 13161
0:0:0:0:0:0:0:1 - - [22/Mar/2018:15:33:46 +0700] "GET /noodle/customer.htm?mode=orderList HTTP/1.1" 200 13161
0:0:0:0:0:0:0:1 - - [22/Mar/2018:15:35:14 +0700] "GET /noodle/customer.htm?mode=orderList HTTP/1.1" 200 13181
0:0:0:0:0:0:0:1 - - [22/Mar/2018:15:35:36 +0700] "GET /noodle/customer.htm?mode=orderList HTTP/1.1" 200 13181
0:0:0:0:0:0:0:1 - - [22/Mar/2018:15:48:28 +0700] "GET /noodle/customer.htm?mode=orderList HTTP/1.1" 200 13181
0:0:0:0:0:0:0:1 - - [22/Mar/2018:15:50:11 +0700] "GET /noodle/customer.htm?mode=orderList HTTP/1.1" 200 3743
0:0:0:0:0:0:0:1 - - [22/Mar/2018:15:50:16 +0700] "GET /noodle/customer.htm?mode=orderList HTTP/1.1" 200 3743
0:0:0:0:0:0:0:1 - - [22/Mar/2018:15:50:18 +0700] "GET /noodle/customer.htm?mode=orderList HTTP/1.1" 200 3743
0:0:0:0:0:0:0:1 - - [22/Mar/2018:15:50:22 +0700] "GET /noodle/customer.htm?mode=orderList HTTP/1.1" 200 3743
0:0:0:0:0:0:0:1 - - [22/Mar/2018:15:50:43 +0700] "GET /noodle/customer.htm?mode=orderList HTTP/1.1" 200 3743
0:0:0:0:0:0:0:1 - - [22/Mar/2018:15:50:45 +0700] "GET /noodle/login.htm?mode=home HTTP/1.1" 200 13852
0:0:0:0:0:0:0:1 - - [22/Mar/2018:15:50:47 +0700] "GET /noodle/order.htm?mode=index HTTP/1.1" 200 22743
0:0:0:0:0:0:0:1 - - [22/Mar/2018:15:50:57 +0700] "GET /noodle/customer.htm?mode=orderList HTTP/1.1" 200 3743
0:0:0:0:0:0:0:1 - - [22/Mar/2018:15:51:27 +0700] "GET /noodle/customer.htm?mode=orderList HTTP/1.1" 200 3746
0:0:0:0:0:0:0:1 - - [22/Mar/2018:15:51:33 +0700] "GET /noodle/customer.htm?mode=orderList HTTP/1.1" 200 3746
0:0:0:0:0:0:0:1 - - [22/Mar/2018:15:51:46 +0700] "GET /noodle/customer.htm?mode=orderList HTTP/1.1" 200 3746
0:0:0:0:0:0:0:1 - - [22/Mar/2018:15:51:48 +0700] "GET /noodle/login.htm?mode=home HTTP/1.1" 200 13852
0:0:0:0:0:0:0:1 - - [22/Mar/2018:15:52:41 +0700] "GET /noodle/customer.htm?mode=orderList HTTP/1.1" 200 11649
0:0:0:0:0:0:0:1 - - [22/Mar/2018:15:52:55 +0700] "GET /noodle/customer.htm?mode=orderList HTTP/1.1" 200 11646
0:0:0:0:0:0:0:1 - - [22/Mar/2018:15:53:07 +0700] "GET /noodle/customer.htm?mode=orderList HTTP/1.1" 200 11646
0:0:0:0:0:0:0:1 - - [22/Mar/2018:15:53:09 +0700] "GET /noodle/customer.htm?mode=orderList HTTP/1.1" 200 11646
0:0:0:0:0:0:0:1 - - [22/Mar/2018:15:53:11 +0700] "GET /noodle/customer.htm?mode=orderList HTTP/1.1" 200 11646
0:0:0:0:0:0:0:1 - - [22/Mar/2018:15:53:15 +0700] "GET /noodle/customer.htm?mode=orderList HTTP/1.1" 200 11646
0:0:0:0:0:0:0:1 - - [22/Mar/2018:15:53:16 +0700] "GET /noodle/customer.htm?mode=orderList HTTP/1.1" 200 11646
0:0:0:0:0:0:0:1 - - [22/Mar/2018:15:53:38 +0700] "GET /noodle/customer.htm?mode=orderList HTTP/1.1" 200 11588
0:0:0:0:0:0:0:1 - - [22/Mar/2018:15:53:49 +0700] "GET /noodle/stock.htm?mode=index HTTP/1.1" 200 32672
0:0:0:0:0:0:0:1 - - [22/Mar/2018:15:53:54 +0700] "POST /noodle/stock.htm HTTP/1.1" 200 12203
0:0:0:0:0:0:0:1 - - [22/Mar/2018:15:54:13 +0700] "POST /noodle/stock.htm HTTP/1.1" 200 33379
0:0:0:0:0:0:0:1 - - [22/Mar/2018:15:54:21 +0700] "POST /noodle/stock.htm HTTP/1.1" 200 32672
0:0:0:0:0:0:0:1 - - [22/Mar/2018:15:57:52 +0700] "GET /noodle/stock.htm?mode=index HTTP/1.1" 500 68
0:0:0:0:0:0:0:1 - - [22/Mar/2018:15:57:52 +0700] "GET /noodle/stock.htm?mode=index HTTP/1.1" 500 68
0:0:0:0:0:0:0:1 - - [22/Mar/2018:15:57:52 +0700] "POST /noodle/stock.htm HTTP/1.1" 500 68
0:0:0:0:0:0:0:1 - - [22/Mar/2018:15:58:00 +0700] "GET /noodle/customer.htm?mode=customer HTTP/1.1" 200 25357
0:0:0:0:0:0:0:1 - - [22/Mar/2018:15:58:05 +0700] "GET /noodle/ HTTP/1.1" 200 68
0:0:0:0:0:0:0:1 - - [22/Mar/2018:15:58:09 +0700] "GET /noodle/login.htm?mode=index&er= HTTP/1.1" 200 6215
0:0:0:0:0:0:0:1 - - [22/Mar/2018:15:58:25 +0700] "POST /noodle/login.htm HTTP/1.1" 200 367
0:0:0:0:0:0:0:1 - - [22/Mar/2018:15:58:26 +0700] "GET /noodle/login.htm?mode=home HTTP/1.1" 200 13859
0:0:0:0:0:0:0:1 - - [22/Mar/2018:15:58:28 +0700] "GET /noodle/stock.htm?mode=index HTTP/1.1" 200 32679
0:0:0:0:0:0:0:1 - - [22/Mar/2018:15:58:32 +0700] "POST /noodle/stock.htm HTTP/1.1" 200 12205
0:0:0:0:0:0:0:1 - - [22/Mar/2018:15:58:36 +0700] "POST /noodle/stock.htm HTTP/1.1" 200 33400
0:0:0:0:0:0:0:1 - - [22/Mar/2018:15:58:46 +0700] "POST /noodle/stock.htm HTTP/1.1" 200 12217
0:0:0:0:0:0:0:1 - - [22/Mar/2018:15:58:51 +0700] "POST /noodle/stock.htm HTTP/1.1" 200 34100
0:0:0:0:0:0:0:1 - - [22/Mar/2018:15:59:36 +0700] "POST /noodle/stock.htm HTTP/1.1" 200 34800
0:0:0:0:0:0:0:1 - - [22/Mar/2018:15:59:52 +0700] "POST /noodle/stock.htm HTTP/1.1" 500 68
0:0:0:0:0:0:0:1 - - [22/Mar/2018:15:59:52 +0700] "GET /noodle/login.htm?mode=index&er= HTTP/1.1" 200 6215
0:0:0:0:0:0:0:1 - - [22/Mar/2018:15:59:59 +0700] "GET /noodle/stock.htm?mode=index HTTP/1.1" 200 35493
0:0:0:0:0:0:0:1 - - [22/Mar/2018:16:00:04 +0700] "POST /noodle/stock.htm HTTP/1.1" 200 12196
0:0:0:0:0:0:0:1 - - [22/Mar/2018:16:00:09 +0700] "POST /noodle/stock.htm HTTP/1.1" 200 35499
0:0:0:0:0:0:0:1 - - [22/Mar/2018:16:00:14 +0700] "POST /noodle/stock.htm HTTP/1.1" 200 34785
0:0:0:0:0:0:0:1 - - [22/Mar/2018:16:00:16 +0700] "POST /noodle/stock.htm HTTP/1.1" 200 34085
0:0:0:0:0:0:0:1 - - [22/Mar/2018:16:00:19 +0700] "POST /noodle/stock.htm HTTP/1.1" 200 33385
0:0:0:0:0:0:0:1 - - [22/Mar/2018:16:00:22 +0700] "POST /noodle/stock.htm HTTP/1.1" 200 32676
0:0:0:0:0:0:0:1 - - [22/Mar/2018:16:00:24 +0700] "POST /noodle/stock.htm HTTP/1.1" 200 31970
0:0:0:0:0:0:0:1 - - [22/Mar/2018:16:00:27 +0700] "POST /noodle/stock.htm HTTP/1.1" 200 12198
0:0:0:0:0:0:0:1 - - [22/Mar/2018:16:00:33 +0700] "POST /noodle/stock.htm HTTP/1.1" 200 31981
0:0:0:0:0:0:0:1 - - [22/Mar/2018:16:00:38 +0700] "POST /noodle/stock.htm HTTP/1.1" 200 12209
0:0:0:0:0:0:0:1 - - [22/Mar/2018:16:00:41 +0700] "POST /noodle/stock.htm HTTP/1.1" 200 31980
0:0:0:0:0:0:0:1 - - [22/Mar/2018:16:00:59 +0700] "GET /noodle/stock.htm?mode=stockAdd HTTP/1.1" 200 12190
0:0:0:0:0:0:0:1 - - [22/Mar/2018:16:01:15 +0700] "GET /noodle/report.htm?mode=reportDaySales HTTP/1.1" 200 9519
0:0:0:0:0:0:0:1 - - [22/Mar/2018:16:01:19 +0700] "GET /noodle/master.htm?mode=product HTTP/1.1" 200 11452
0:0:0:0:0:0:0:1 - - [22/Mar/2018:16:01:25 +0700] "GET /noodle/stock.htm?mode=index HTTP/1.1" 200 31980
0:0:0:0:0:0:0:1 - - [22/Mar/2018:16:02:34 +0700] "GET /noodle/customer.htm?mode=orderList HTTP/1.1" 200 11588
0:0:0:0:0:0:0:1 - - [22/Mar/2018:16:06:32 +0700] "GET /noodle/order.htm?mode=index HTTP/1.1" 200 22743
0:0:0:0:0:0:0:1 - - [22/Mar/2018:16:07:28 +0700] "GET /noodle/order.htm?mode=index HTTP/1.1" 200 22743
0:0:0:0:0:0:0:1 - - [22/Mar/2018:16:07:28 +0700] "GET /noodle/ui/sbadmin2/vendor/datatables/css/dataTables.bootstrap.css HTTP/1.1" 200 4823
0:0:0:0:0:0:0:1 - - [22/Mar/2018:16:07:28 +0700] "GET /noodle/ui/sbadmin2/dist/css/sb-admin-2.css HTTP/1.1" 200 8420
0:0:0:0:0:0:0:1 - - [22/Mar/2018:16:07:28 +0700] "GET /noodle/ui/css/color.css HTTP/1.1" 200 34851
0:0:0:0:0:0:0:1 - - [22/Mar/2018:16:07:28 +0700] "GET /noodle/ui/sbadmin2/vendor/datatables-responsive/dataTables.responsive.css HTTP/1.1" 200 3051
0:0:0:0:0:0:0:1 - - [22/Mar/2018:16:07:28 +0700] "GET /noodle/ui/sbadmin2/dist/css/formValidation.css HTTP/1.1" 200 4293
0:0:0:0:0:0:0:1 - - [22/Mar/2018:16:07:28 +0700] "GET /noodle/ui/sbadmin2/vendor/font-awesome/css/font-awesome.min.css HTTP/1.1" 200 31000
0:0:0:0:0:0:0:1 - - [22/Mar/2018:16:07:28 +0700] "GET /noodle/ui/sbadmin2/vendor/metisMenu/metisMenu.min.css HTTP/1.1" 200 781
0:0:0:0:0:0:0:1 - - [22/Mar/2018:16:07:29 +0700] "GET /noodle/ui/sbadmin2/vendor/bootstrap/css/bootstrap.css HTTP/1.1" 200 146175
0:0:0:0:0:0:0:1 - - [22/Mar/2018:16:07:29 +0700] "GET /noodle/ui/sbadmin2/vendor/bootstrap-datepicker/css/bootstrap-datepicker.css HTTP/1.1" 200 17311
0:0:0:0:0:0:0:1 - - [22/Mar/2018:16:07:29 +0700] "GET /noodle/ui/sbadmin2/vendor/metisMenu/metisMenu.min.js HTTP/1.1" 200 1879
0:0:0:0:0:0:0:1 - - [22/Mar/2018:16:07:29 +0700] "GET /noodle/ui/sbadmin2/vendor/bootstrap-timepicker/css/bootstrap-timepicker.css HTTP/1.1" 200 3421
0:0:0:0:0:0:0:1 - - [22/Mar/2018:16:07:29 +0700] "GET /noodle/ui/sbadmin2/vendor/datatables-responsive/dataTables.responsive.js HTTP/1.1" 200 25098
0:0:0:0:0:0:0:1 - - [22/Mar/2018:16:07:29 +0700] "GET /noodle/ui/sbadmin2/vendor/datatables/js/dataTables.bootstrap.js HTTP/1.1" 200 4544
0:0:0:0:0:0:0:1 - - [22/Mar/2018:16:07:29 +0700] "GET /noodle/ui/sbadmin2/vendor/bootstrap/js/bootstrap.min.js HTTP/1.1" 200 37045
0:0:0:0:0:0:0:1 - - [22/Mar/2018:16:07:29 +0700] "GET /noodle/ui/sbadmin2/dist/js/sb-admin-2.js HTTP/1.1" 200 1626
0:0:0:0:0:0:0:1 - - [22/Mar/2018:16:07:30 +0700] "GET /noodle/ui/sbadmin2/dist/js/framework/bootstrap.js HTTP/1.1" 200 10774
0:0:0:0:0:0:0:1 - - [22/Mar/2018:16:07:30 +0700] "GET /noodle/ui/sbadmin2/vendor/bootstrap/js/bootbox.js HTTP/1.1" 200 26620
0:0:0:0:0:0:0:1 - - [22/Mar/2018:16:07:30 +0700] "GET /noodle/ui/sbadmin2/vendor/bootstrap-timepicker/js/bootstrap-timepicker.js HTTP/1.1" 200 34375
0:0:0:0:0:0:0:1 - - [22/Mar/2018:16:07:30 +0700] "GET /noodle/ui/sbadmin2/js/numeral.min.js HTTP/1.1" 200 11444
0:0:0:0:0:0:0:1 - - [22/Mar/2018:16:07:30 +0700] "GET /noodle/ui/sbadmin2/vendor/jquery/jquery.min.js HTTP/1.1" 200 86351
0:0:0:0:0:0:0:1 - - [22/Mar/2018:16:07:30 +0700] "GET /noodle/ui/sbadmin2/vendor/bootstrap-datepicker/locales/bootstrap-datepicker.th.min.js HTTP/1.1" 200 953
0:0:0:0:0:0:0:1 - - [22/Mar/2018:16:07:30 +0700] "GET /noodle/ui/sbadmin2/vendor/bootstrap-datepicker/js/bootstrap-datepicker-custom.js HTTP/1.1" 200 74730
0:0:0:0:0:0:0:1 - - [22/Mar/2018:16:07:30 +0700] "GET /noodle/tomyum1.jpg HTTP/1.1" 200 777623
0:0:0:0:0:0:0:1 - - [22/Mar/2018:16:07:30 +0700] "GET /noodle/ui/sbadmin2/dist/js/formValidation.js HTTP/1.1" 200 369194
0:0:0:0:0:0:0:1 - - [22/Mar/2018:16:07:30 +0700] "GET /noodle/tomyumchick.jpg HTTP/1.1" 200 593697
0:0:0:0:0:0:0:1 - - [22/Mar/2018:16:07:30 +0700] "GET /noodle/tomyumSea.jpg HTTP/1.1" 200 176039
0:0:0:0:0:0:0:1 - - [22/Mar/2018:16:07:31 +0700] "GET /noodle/ui/sbadmin2/vendor/font-awesome/fonts/fontawesome-webfont.woff2?v=4.7.0 HTTP/1.1" 200 77160
0:0:0:0:0:0:0:1 - - [22/Mar/2018:16:07:31 +0700] "GET /noodle/ui/sbadmin2/vendor/bootstrap/fonts/glyphicons-halflings-regular.woff2 HTTP/1.1" 200 18028
0:0:0:0:0:0:0:1 - - [22/Mar/2018:16:07:31 +0700] "GET /favicon.ico HTTP/1.1" 404 973
0:0:0:0:0:0:0:1 - - [22/Mar/2018:16:32:04 +0700] "GET /noodle/customer.htm?mode=customer HTTP/1.1" 200 25357
0:0:0:0:0:0:0:1 - - [22/Mar/2018:16:32:12 +0700] "GET /noodle/order.htm?mode=index HTTP/1.1" 500 68
0:0:0:0:0:0:0:1 - - [22/Mar/2018:16:40:21 +0700] "GET /noodle/ HTTP/1.1" 200 68
0:0:0:0:0:0:0:1 - - [22/Mar/2018:16:40:22 +0700] "GET /noodle/ HTTP/1.1" 200 68
0:0:0:0:0:0:0:1 - - [22/Mar/2018:16:40:24 +0700] "GET /noodle/login.htm?mode=index&er= HTTP/1.1" 200 6215
0:0:0:0:0:0:0:1 - - [22/Mar/2018:16:40:24 +0700] "GET /noodle/login.htm?mode=index&er= HTTP/1.1" 200 6215
0:0:0:0:0:0:0:1 - - [22/Mar/2018:16:40:24 +0700] "GET /noodle/ui/sbadmin2/dist/css/sb-admin-2.css HTTP/1.1" 200 8420
0:0:0:0:0:0:0:1 - - [22/Mar/2018:16:40:24 +0700] "GET /noodle/ui/css/color.css HTTP/1.1" 200 34851
0:0:0:0:0:0:0:1 - - [22/Mar/2018:16:40:24 +0700] "GET /noodle/ui/sbadmin2/dist/css/formValidation.css HTTP/1.1" 200 4293
0:0:0:0:0:0:0:1 - - [22/Mar/2018:16:40:24 +0700] "GET /noodle/ui/sbadmin2/vendor/datatables-responsive/dataTables.responsive.css HTTP/1.1" 200 3051
0:0:0:0:0:0:0:1 - - [22/Mar/2018:16:40:24 +0700] "GET /noodle/ui/sbadmin2/vendor/font-awesome/css/font-awesome.min.css HTTP/1.1" 200 31000
0:0:0:0:0:0:0:1 - - [22/Mar/2018:16:40:24 +0700] "GET /noodle/ui/sbadmin2/vendor/metisMenu/metisMenu.min.css HTTP/1.1" 200 781
0:0:0:0:0:0:0:1 - - [22/Mar/2018:16:40:24 +0700] "GET /noodle/ui/sbadmin2/vendor/datatables/css/dataTables.bootstrap.css HTTP/1.1" 200 4823
0:0:0:0:0:0:0:1 - - [22/Mar/2018:16:40:24 +0700] "GET /noodle/ui/sbadmin2/vendor/bootstrap/css/bootstrap.css HTTP/1.1" 200 146175
0:0:0:0:0:0:0:1 - - [22/Mar/2018:16:40:24 +0700] "GET /noodle/ui/sbadmin2/vendor/bootstrap-datepicker/css/bootstrap-datepicker.css HTTP/1.1" 200 17311
0:0:0:0:0:0:0:1 - - [22/Mar/2018:16:40:25 +0700] "GET /noodle/ui/sbadmin2/vendor/bootstrap-timepicker/css/bootstrap-timepicker.css HTTP/1.1" 200 3421
0:0:0:0:0:0:0:1 - - [22/Mar/2018:16:40:25 +0700] "GET /noodle/ui/sbadmin2/vendor/bootstrap-datepicker/locales/bootstrap-datepicker.th.min.js HTTP/1.1" 200 953
0:0:0:0:0:0:0:1 - - [22/Mar/2018:16:40:25 +0700] "GET /noodle/ui/sbadmin2/vendor/font-awesome/fonts/fontawesome-webfont.woff2?v=4.7.0 HTTP/1.1" 200 77160
0:0:0:0:0:0:0:1 - - [22/Mar/2018:16:40:25 +0700] "GET /noodle/ui/sbadmin2/vendor/bootstrap/fonts/glyphicons-halflings-regular.woff2 HTTP/1.1" 200 18028
0:0:0:0:0:0:0:1 - - [22/Mar/2018:16:40:36 +0700] "POST /noodle/login.htm HTTP/1.1" 200 367
0:0:0:0:0:0:0:1 - - [22/Mar/2018:16:40:38 +0700] "GET /noodle/login.htm?mode=home HTTP/1.1" 200 13859
0:0:0:0:0:0:0:1 - - [22/Mar/2018:16:40:41 +0700] "GET /noodle/customer.htm?mode=orderList HTTP/1.1" 200 11595
0:0:0:0:0:0:0:1 - - [22/Mar/2018:16:40:44 +0700] "GET /noodle/order.htm?mode=index HTTP/1.1" 200 23228
0:0:0:0:0:0:0:1 - - [22/Mar/2018:16:40:44 +0700] "GET /noodle/tomyum1.jpg HTTP/1.1" 200 777623
0:0:0:0:0:0:0:1 - - [22/Mar/2018:16:40:44 +0700] "GET /noodle/tomyumSea.jpg HTTP/1.1" 200 176039
0:0:0:0:0:0:0:1 - - [22/Mar/2018:16:40:44 +0700] "GET /noodle/tomyumchick.jpg HTTP/1.1" 200 593697
0:0:0:0:0:0:0:1 - - [22/Mar/2018:16:40:47 +0700] "POST /noodle/order.htm HTTP/1.1" 200 21176
0:0:0:0:0:0:0:1 - - [22/Mar/2018:16:40:52 +0700] "POST /noodle/order.htm HTTP/1.1" 200 21176
0:0:0:0:0:0:0:1 - - [22/Mar/2018:16:40:56 +0700] "POST /noodle/order.htm HTTP/1.1" 200 21176
0:0:0:0:0:0:0:1 - - [22/Mar/2018:16:41:05 +0700] "GET /noodle/order.htm?mode=index HTTP/1.1" 200 21173
0:0:0:0:0:0:0:1 - - [22/Mar/2018:16:42:04 +0700] "GET /noodle/order.htm?mode=index HTTP/1.1" 200 21173
0:0:0:0:0:0:0:1 - - [22/Mar/2018:16:42:05 +0700] "GET /noodle/order.htm?mode=index HTTP/1.1" 200 21173
0:0:0:0:0:0:0:1 - - [22/Mar/2018:16:42:06 +0700] "GET /noodle/order.htm?mode=index HTTP/1.1" 200 21173
0:0:0:0:0:0:0:1 - - [22/Mar/2018:16:42:09 +0700] "GET /noodle/order.htm?mode=index HTTP/1.1" 200 21173
0:0:0:0:0:0:0:1 - - [22/Mar/2018:16:43:06 +0700] "GET /noodle/order.htm?mode=index HTTP/1.1" 200 21161
0:0:0:0:0:0:0:1 - - [22/Mar/2018:16:43:51 +0700] "GET /noodle/order.htm?mode=index HTTP/1.1" 200 20997
0:0:0:0:0:0:0:1 - - [22/Mar/2018:16:44:27 +0700] "GET /noodle/order.htm?mode=index HTTP/1.1" 200 21039
0:0:0:0:0:0:0:1 - - [22/Mar/2018:16:44:58 +0700] "GET /noodle/order.htm?mode=index HTTP/1.1" 200 21027
0:0:0:0:0:0:0:1 - - [22/Mar/2018:16:45:19 +0700] "GET /noodle/order.htm?mode=index HTTP/1.1" 200 21042
0:0:0:0:0:0:0:1 - - [22/Mar/2018:16:45:20 +0700] "GET /noodle/order.htm?mode=index HTTP/1.1" 200 21042
0:0:0:0:0:0:0:1 - - [22/Mar/2018:16:45:45 +0700] "GET /noodle/order.htm?mode=index HTTP/1.1" 200 21047
0:0:0:0:0:0:0:1 - - [22/Mar/2018:16:56:45 +0700] "GET /noodle/customer.htm?mode=orderList HTTP/1.1" 200 11161
0:0:0:0:0:0:0:1 - - [22/Mar/2018:16:58:31 +0700] "GET /noodle/login.htm?mode=home HTTP/1.1" 200 13859
0:0:0:0:0:0:0:1 - - [22/Mar/2018:16:58:35 +0700] "GET /noodle/stock.htm?mode=index HTTP/1.1" 200 31987
0:0:0:0:0:0:0:1 - - [22/Mar/2018:16:58:35 +0700] "GET /noodle/stock.htm?mode=index HTTP/1.1" 200 16406
0:0:0:0:0:0:0:1 - - [22/Mar/2018:16:58:35 +0700] "GET /noodle/stock.htm?mode=index HTTP/1.1" 200 16406
0:0:0:0:0:0:0:1 - - [22/Mar/2018:17:00:13 +0700] "GET /noodle/login.htm?mode=home HTTP/1.1" 200 13859
0:0:0:0:0:0:0:1 - - [22/Mar/2018:17:00:27 +0700] "GET /noodle/stock.htm?mode=index HTTP/1.1" 200 31987
0:0:0:0:0:0:0:1 - - [22/Mar/2018:17:00:50 +0700] "GET /noodle/master.htm?mode=customerAll HTTP/1.1" 200 13407
0:0:0:0:0:0:0:1 - - [22/Mar/2018:17:01:59 +0700] "GET /noodle/master.htm?mode=customerAll HTTP/1.1" 200 13407
0:0:0:0:0:0:0:1 - - [22/Mar/2018:17:02:06 +0700] "GET /noodle/master.htm?mode=customerAdd HTTP/1.1" 200 18293
0:0:0:0:0:0:0:1 - - [22/Mar/2018:17:04:00 +0700] "GET /noodle/master.htm?mode=customerAll HTTP/1.1" 200 13124
0:0:0:0:0:0:0:1 - - [22/Mar/2018:17:04:12 +0700] "GET /noodle/master.htm?mode=customerAll HTTP/1.1" 200 13121
0:0:0:0:0:0:0:1 - - [22/Mar/2018:17:09:52 +0700] "GET /noodle/master.htm?mode=customerAll HTTP/1.1" 200 13331
0:0:0:0:0:0:0:1 - - [22/Mar/2018:17:10:42 +0700] "GET /noodle/master.htm?mode=customerAll HTTP/1.1" 200 13325
0:0:0:0:0:0:0:1 - - [22/Mar/2018:17:10:45 +0700] "GET /noodle/master.htm?mode=customerAll HTTP/1.1" 200 13325
0:0:0:0:0:0:0:1 - - [22/Mar/2018:17:10:47 +0700] "GET /noodle/master.htm?mode=customerAll HTTP/1.1" 200 13325
0:0:0:0:0:0:0:1 - - [22/Mar/2018:17:11:17 +0700] "GET /noodle/master.htm?mode=customerAll HTTP/1.1" 200 13328
0:0:0:0:0:0:0:1 - - [22/Mar/2018:17:11:19 +0700] "GET /noodle/master.htm?mode=customerAll HTTP/1.1" 200 13328
0:0:0:0:0:0:0:1 - - [22/Mar/2018:17:11:28 +0700] "GET /noodle/master.htm?mode=customerAll HTTP/1.1" 200 13328
0:0:0:0:0:0:0:1 - - [22/Mar/2018:17:11:36 +0700] "GET /noodle/master.htm?mode=customerAll HTTP/1.1" 200 13328
0:0:0:0:0:0:0:1 - - [22/Mar/2018:17:13:51 +0700] "GET /noodle/master.htm?mode=customerAll HTTP/1.1" 200 13505
0:0:0:0:0:0:0:1 - - [22/Mar/2018:17:14:40 +0700] "GET /noodle/order.htm?mode=index HTTP/1.1" 200 21047
0:0:0:0:0:0:0:1 - - [22/Mar/2018:17:14:46 +0700] "GET /noodle/master.htm?mode=customerAll HTTP/1.1" 200 13517
0:0:0:0:0:0:0:1 - - [22/Mar/2018:17:14:53 +0700] "GET /noodle/customer.htm?mode=customer HTTP/1.1" 200 25357
0:0:0:0:0:0:0:1 - - [22/Mar/2018:17:15:00 +0700] "GET /noodle/ HTTP/1.1" 200 68
0:0:0:0:0:0:0:1 - - [22/Mar/2018:17:15:01 +0700] "GET /noodle/login.htm?mode=index&er= HTTP/1.1" 200 6215
0:0:0:0:0:0:0:1 - - [22/Mar/2018:17:15:19 +0700] "POST /noodle/login.htm HTTP/1.1" 200 367
0:0:0:0:0:0:0:1 - - [22/Mar/2018:17:15:20 +0700] "GET /noodle/login.htm?mode=home HTTP/1.1" 200 13859
0:0:0:0:0:0:0:1 - - [22/Mar/2018:17:15:25 +0700] "GET /noodle/master.htm?mode=customerAll HTTP/1.1" 200 13517
0:0:0:0:0:0:0:1 - - [22/Mar/2018:17:15:45 +0700] "GET /noodle/master.htm?mode=customerAll HTTP/1.1" 200 13517
0:0:0:0:0:0:0:1 - - [22/Mar/2018:17:16:36 +0700] "GET /noodle/master.htm?mode=customerAll HTTP/1.1" 200 13518
0:0:0:0:0:0:0:1 - - [22/Mar/2018:17:17:12 +0700] "GET /noodle/master.htm?mode=customerAll HTTP/1.1" 200 13450
0:0:0:0:0:0:0:1 - - [22/Mar/2018:17:17:45 +0700] "GET /noodle/master.htm?mode=customerAll HTTP/1.1" 200 13450
